,date,city,rent,product
0,2022-01-01,Karabük,17,1382
1,2022-01-02,Batman,3,1342
2,2022-01-03,Erzincan,17,1727
3,2022-01-04,Kilis,6,1477
4,2022-01-05,Muğla,8,1194
5,2022-01-06,Hatay,12,1926
6,2022-01-07,Yozgat,1,1723
7,2022-01-08,Bitlis,16,1914
8,2022-01-09,Batman,12,1280
9,2022-01-10,İstanbul,1,1222
10,2022-01-11,Kahramanmaraş,7,1463
11,2022-01-12,Çorum,17,1066
12,2022-01-13,Sakarya,9,1385
13,2022-01-14,Samsun,7,1202
14,2022-01-15,Ağrı,12,1695
15,2022-01-16,Burdur,2,1672
16,2022-01-17,Kayseri,5,1768
17,2022-01-18,Eskişehir,8,1232
18,2022-01-19,Şanlıurfa,16,1457
19,2022-01-20,Zonguldak,16,1703
20,2022-01-21,Ankara,16,1736
21,2022-01-22,Uşak,10,1302
22,2022-01-23,Konya,16,1574
23,2022-01-24,İçel (Mersin),12,1717
24,2022-01-25,Kütahya,9,1039
25,2022-01-26,Mardin,14,1926
26,2022-01-27,Çorum,17,1413
27,2022-01-28,Siirt,4,1926
28,2022-01-29,İstanbul,15,1636
29,2022-01-30,Gümüşhane,17,1082
30,2022-01-31,Aydın,5,1127
31,2022-02-01,Afyon,14,1894
32,2022-02-02,Ankara,17,1733
33,2022-02-03,Nevşehir,12,1708
34,2022-02-04,Diyarbakır,3,1122
35,2022-02-05,Eskişehir,7,1970
36,2022-02-06,Bilecik,17,1703
37,2022-02-07,Sakarya,6,1530
38,2022-02-08,Düzce,15,1361
39,2022-02-09,Erzurum,4,1294
40,2022-02-10,Sinop,3,1078
41,2022-02-11,Balıkesir,12,1929
42,2022-02-12,Balıkesir,17,1449
43,2022-02-13,Trabzon,7,1228
44,2022-02-14,Tunceli,9,1449
45,2022-02-15,Kahramanmaraş,15,1404
46,2022-02-16,Giresun,6,1854
47,2022-02-17,Bartın,13,1517
48,2022-02-18,Kayseri,14,1161
49,2022-02-19,Uşak,14,1820
50,2022-02-20,Konya,4,1369
51,2022-02-21,Muş,17,1748
52,2022-02-22,Isparta,14,1186
53,2022-02-23,Şanlıurfa,7,1067
54,2022-02-24,Samsun,9,1467
55,2022-02-25,Bursa,2,1925
56,2022-02-26,Denizli,17,1761
57,2022-02-27,Gaziantep,1,1528
58,2022-02-28,Osmaniye,17,1739
59,2022-03-01,Giresun,13,1778
60,2022-03-02,Çanakkale,16,1680
61,2022-03-03,Konya,14,1418
62,2022-03-04,Diyarbakır,11,1269
63,2022-03-05,Tokat,14,1645
64,2022-03-06,Karaman,1,1453
65,2022-03-07,Bolu,1,1061
66,2022-03-08,Hakkari,11,1672
67,2022-03-09,Ankara,10,1394
68,2022-03-10,Bilecik,5,1725
69,2022-03-11,Bolu,1,1090
70,2022-03-12,Düzce,3,1095
71,2022-03-13,Edirne,8,1356
72,2022-03-14,Adana,17,1254
73,2022-03-15,Ardahan,11,1336
74,2022-03-16,İçel (Mersin),5,1968
75,2022-03-17,Kilis,8,1424
76,2022-03-18,Yozgat,16,1505
77,2022-03-19,Kırıkkale,4,1500
78,2022-03-20,Antalya,7,1185
79,2022-03-21,Van,8,1758
80,2022-03-22,Sakarya,10,1858
81,2022-03-23,İstanbul,4,1592
82,2022-03-24,Ardahan,17,1399
83,2022-03-25,Şanlıurfa,14,1199
84,2022-03-26,Hatay,9,1314
85,2022-03-27,Rize,14,1806
86,2022-03-28,Mardin,5,1321
87,2022-03-29,Şırnak,16,1709
88,2022-03-30,Antalya,11,1375
89,2022-03-31,Ankara,3,1353
90,2022-04-01,Bilecik,5,1965
91,2022-04-02,Iğdır,5,1523
92,2022-04-03,Artvin,3,1205
93,2022-04-04,Bingöl,14,1081
94,2022-04-05,Bursa,4,1389
95,2022-04-06,Adıyaman,4,1430
96,2022-04-07,Zonguldak,8,1624
97,2022-04-08,Erzincan,12,1846
98,2022-04-09,Batman,10,1644
99,2022-04-10,Ağrı,12,1397
100,2022-04-11,Ordu,7,1615
101,2022-04-12,Amasya,11,1779
102,2022-04-13,Kastamonu,10,1039
103,2022-04-14,Diyarbakır,5,1169
104,2022-04-15,Aksaray,2,1595
105,2022-04-16,Eskişehir,13,1383
106,2022-04-17,Samsun,14,1344
107,2022-04-18,Elazığ,10,1030
108,2022-04-19,Şırnak,6,1418
109,2022-04-20,Şanlıurfa,7,1309
110,2022-04-21,Bayburt,3,1016
111,2022-04-22,Çanakkale,7,1455
112,2022-04-23,Ardahan,10,1535
113,2022-04-24,Çorum,14,1377
114,2022-04-25,Çankırı,1,1043
115,2022-04-26,Şırnak,12,1624
116,2022-04-27,Rize,6,1823
117,2022-04-28,Giresun,9,1256
118,2022-04-29,Ardahan,2,1714
119,2022-04-30,Kırşehir,7,1264
120,2022-05-01,Kayseri,6,1178
121,2022-05-02,Afyon,15,1818
122,2022-05-03,Sivas,6,1954
123,2022-05-04,Batman,11,1436
124,2022-05-05,Kırıkkale,9,1720
125,2022-05-06,Samsun,17,1030
126,2022-05-07,Ankara,15,1906
127,2022-05-08,Denizli,12,1009
128,2022-05-09,Bolu,13,1744
129,2022-05-10,Sivas,1,1754
130,2022-05-11,Mardin,15,1745
131,2022-05-12,Kırıkkale,15,1491
132,2022-05-13,Sinop,8,1722
133,2022-05-14,Kütahya,14,1001
134,2022-05-15,Hakkari,15,1552
135,2022-05-16,İstanbul,14,1909
136,2022-05-17,Adana,16,1813
137,2022-05-18,Kahramanmaraş,1,1174
138,2022-05-19,Karabük,5,1663
139,2022-05-20,Erzurum,15,1707
140,2022-05-21,Bilecik,10,1501
141,2022-05-22,Erzurum,15,1104
142,2022-05-23,Şanlıurfa,7,1852
143,2022-05-24,Van,5,1460
144,2022-05-25,Karabük,9,1287
145,2022-05-26,Van,8,1616
146,2022-05-27,Aydın,3,1516
147,2022-05-28,Bursa,8,1150
148,2022-05-29,İstanbul,2,1220
149,2022-05-30,Ankara,15,1193
150,2022-05-31,Bitlis,2,1573
151,2022-06-01,Sivas,17,1441
152,2022-06-02,Erzurum,6,1269
153,2022-06-03,Zonguldak,2,1832
154,2022-06-04,İstanbul,15,1114
155,2022-06-05,Ağrı,10,1491
156,2022-06-06,Kars,4,1206
157,2022-06-07,Eskişehir,14,1906
158,2022-06-08,Edirne,9,1288
159,2022-06-09,Sivas,4,1004
160,2022-06-10,Sakarya,10,1286
161,2022-06-11,Malatya,11,1536
162,2022-06-12,Mardin,15,1328
163,2022-06-13,Hatay,3,1402
164,2022-06-14,Rize,1,1003
165,2022-06-15,Gaziantep,5,1349
166,2022-06-16,Sakarya,2,1980
167,2022-06-17,Bingöl,16,1159
168,2022-06-18,Aksaray,7,1749
169,2022-06-19,Kırşehir,2,1170
170,2022-06-20,Batman,2,1366
171,2022-06-21,Edirne,7,1182
172,2022-06-22,Tokat,10,1592
173,2022-06-23,Gaziantep,14,1444
174,2022-06-24,Ağrı,13,1488
175,2022-06-25,Tokat,14,1210
176,2022-06-26,Batman,2,1929
177,2022-06-27,Artvin,11,1455
178,2022-06-28,Erzincan,2,1878
179,2022-06-29,Karabük,15,1661
180,2022-06-30,Tekirdağ,10,1609
181,2022-07-01,Antalya,2,1939
182,2022-07-02,Şırnak,15,1721
183,2022-07-03,Kilis,11,1638
184,2022-07-04,Kırklareli,15,1438
185,2022-07-05,Elazığ,13,1198
186,2022-07-06,Yozgat,7,1933
187,2022-07-07,Isparta,8,1478
188,2022-07-08,Yalova,8,1858
189,2022-07-09,Sivas,11,1265
190,2022-07-10,Nevşehir,9,1517
191,2022-07-11,Gaziantep,17,1036
192,2022-07-12,Çanakkale,14,1052
193,2022-07-13,Antalya,4,1400
194,2022-07-14,Gümüşhane,10,1645
195,2022-07-15,Gümüşhane,5,1569
196,2022-07-16,Kırklareli,14,1171
197,2022-07-17,Bartın,15,1529
198,2022-07-18,Manisa,11,1678
199,2022-07-19,Bartın,11,1885
200,2022-07-20,Ağrı,4,1243
201,2022-07-21,Tekirdağ,14,1501
202,2022-07-22,Afyon,4,1813
203,2022-07-23,Ankara,11,1656
204,2022-07-24,Iğdır,16,1084
205,2022-07-25,Sinop,2,1663
206,2022-07-26,Çorum,1,1259
207,2022-07-27,Aksaray,11,1075
208,2022-07-28,Karaman,3,1144
209,2022-07-29,Çanakkale,8,1186
210,2022-07-30,Konya,3,1559
211,2022-07-31,Samsun,5,1496
212,2022-08-01,Bitlis,11,1368
213,2022-08-02,Siirt,7,1740
214,2022-08-03,İçel (Mersin),5,1460
215,2022-08-04,Denizli,2,1359
216,2022-08-05,Ardahan,8,1648
217,2022-08-06,Kahramanmaraş,12,1311
218,2022-08-07,Tekirdağ,1,1866
219,2022-08-08,Çanakkale,2,1230
220,2022-08-09,Edirne,16,1584
221,2022-08-10,Manisa,16,1498
222,2022-08-11,Çorum,8,1640
223,2022-08-12,Mardin,1,1980
224,2022-08-13,Kastamonu,4,1322
225,2022-08-14,Bolu,1,1317
226,2022-08-15,Amasya,15,1211
227,2022-08-16,Çorum,12,1232
228,2022-08-17,Giresun,14,1001
229,2022-08-18,Sivas,10,1164
230,2022-08-19,Manisa,10,1179
231,2022-08-20,Konya,2,1316
232,2022-08-21,Samsun,4,1733
233,2022-08-22,İçel (Mersin),15,1422
234,2022-08-23,Adıyaman,5,1323
235,2022-08-24,Hakkari,2,1861
236,2022-08-25,Muş,15,1241
237,2022-08-26,Ankara,12,1456
238,2022-08-27,Kocaeli,9,1782
239,2022-08-28,Tunceli,8,1966
240,2022-08-29,Gaziantep,6,1386
241,2022-08-30,İstanbul,8,1276
242,2022-08-31,Diyarbakır,16,1680
243,2022-09-01,Denizli,15,1067
244,2022-09-02,Eskişehir,10,1267
245,2022-09-03,Afyon,14,1694
246,2022-09-04,Aksaray,7,1587
247,2022-09-05,Antalya,5,1688
248,2022-09-06,Elazığ,11,1683
249,2022-09-07,Van,10,1540
250,2022-09-08,Çankırı,7,1643
251,2022-09-09,Çorum,5,1682
252,2022-09-10,İçel (Mersin),3,1937
253,2022-09-11,Kırşehir,9,1153
254,2022-09-12,Ardahan,8,1503
255,2022-09-13,Konya,3,1386
256,2022-09-14,Kastamonu,16,1951
257,2022-09-15,Bingöl,16,1841
258,2022-09-16,Bingöl,7,1361
259,2022-09-17,Mardin,5,1824
260,2022-09-18,Tunceli,12,1462
261,2022-09-19,Giresun,13,1622
262,2022-09-20,Amasya,10,1355
263,2022-09-21,Muş,9,1050
264,2022-09-22,Samsun,15,1292
265,2022-09-23,Artvin,13,1139
266,2022-09-24,Kayseri,10,1596
267,2022-09-25,Çanakkale,16,1577
268,2022-09-26,İçel (Mersin),11,1206
269,2022-09-27,Balıkesir,15,1564
270,2022-09-28,Bursa,13,1787
271,2022-09-29,Bingöl,12,1417
272,2022-09-30,Diyarbakır,10,1635
273,2022-10-01,Bartın,17,1114
274,2022-10-02,Yozgat,17,1182
275,2022-10-03,Yozgat,13,1462
276,2022-10-04,Sinop,8,1743
277,2022-10-05,Şanlıurfa,14,1153
278,2022-10-06,Bolu,2,1060
279,2022-10-07,Bursa,1,1763
280,2022-10-08,Isparta,15,1055
281,2022-10-09,Aydın,7,1118
282,2022-10-10,Çorum,9,1951
283,2022-10-11,Ardahan,3,1783
284,2022-10-12,Tokat,15,1918
285,2022-10-13,Kilis,13,1474
286,2022-10-14,Hakkari,1,1455
287,2022-10-15,Ağrı,15,1429
288,2022-10-16,Bursa,1,1985
289,2022-10-17,Bursa,3,1779
290,2022-10-18,Eskişehir,9,1387
291,2022-10-19,Kayseri,5,1897
292,2022-10-20,Iğdır,8,1486
293,2022-10-21,Kastamonu,6,1472
294,2022-10-22,Gaziantep,15,1852
295,2022-10-23,Muş,8,1200
296,2022-10-24,Tunceli,12,1790
297,2022-10-25,Isparta,13,1599
298,2022-10-26,Erzincan,3,1001
299,2022-10-27,İstanbul,10,1784
300,2022-10-28,Çankırı,16,1842
301,2022-10-29,Batman,9,1340
302,2022-10-30,Elazığ,1,1030
303,2022-10-31,Düzce,8,1719
304,2022-11-01,İçel (Mersin),6,1060
305,2022-11-02,Bartın,7,1594
306,2022-11-03,Sakarya,16,1720
307,2022-11-04,Uşak,17,1188
308,2022-11-05,Bursa,17,1265
309,2022-11-06,Çankırı,7,1406
310,2022-11-07,Ağrı,5,1467
311,2022-11-08,Bartın,2,1063
312,2022-11-09,Hatay,5,1166
313,2022-11-10,Şanlıurfa,17,1893
314,2022-11-11,Sivas,11,1000
315,2022-11-12,Niğde,10,1410
316,2022-11-13,Afyon,5,1325
317,2022-11-14,Samsun,9,1543
318,2022-11-15,Kütahya,10,1115
319,2022-11-16,Siirt,16,1003
320,2022-11-17,Malatya,17,1500
321,2022-11-18,Edirne,11,1884
322,2022-11-19,Rize,10,1926
323,2022-11-20,Adana,11,1281
324,2022-11-21,Batman,8,1120
325,2022-11-22,Karaman,12,1468
326,2022-11-23,İstanbul,6,1449
327,2022-11-24,Şırnak,14,1059
328,2022-11-25,Kahramanmaraş,8,1734
329,2022-11-26,Ağrı,11,1090
330,2022-11-27,Eskişehir,1,1249
331,2022-11-28,Bartın,8,1250
332,2022-11-29,Hatay,11,1464
333,2022-11-30,Uşak,8,1243
334,2022-12-01,Osmaniye,9,1451
335,2022-12-02,Mardin,2,1674
336,2022-12-03,Erzurum,1,1741
337,2022-12-04,Ardahan,8,1454
338,2022-12-05,Artvin,5,1091
339,2022-12-06,Kayseri,12,1910
340,2022-12-07,Hakkari,13,1028
341,2022-12-08,Kars,11,1713
342,2022-12-09,Kütahya,13,1356
343,2022-12-10,Ordu,15,1619
344,2022-12-11,Nevşehir,15,1600
345,2022-12-12,Manisa,11,1834
346,2022-12-13,İçel (Mersin),11,1595
347,2022-12-14,Bursa,12,1934
348,2022-12-15,Bilecik,11,1473
349,2022-12-16,Bartın,3,1117
350,2022-12-17,Şanlıurfa,16,1838
351,2022-12-18,Niğde,3,1466
352,2022-12-19,Isparta,5,1381
353,2022-12-20,Muğla,8,1522
354,2022-12-21,Çorum,11,1089
355,2022-12-22,Hakkari,12,1123
356,2022-12-23,Yalova,14,1711
357,2022-12-24,İstanbul,15,1528
358,2022-12-25,Muğla,5,1011
359,2022-12-26,Kastamonu,9,1256
360,2022-12-27,Gaziantep,7,1751
361,2022-12-28,Balıkesir,4,1850
362,2022-12-29,Giresun,16,1686
363,2022-12-30,Eskişehir,12,1756
